PM566 Final Project
…
Showcasing plots

Tab 1

## # A tibble: 504 × 4
## # Groups:   Month, Year [24]
##    Month Year  Area        CrimeCount
##    <fct> <chr> <chr>            <int>
##  1 Apr   2020  77th Street       1049
##  2 Apr   2020  Central            795
##  3 Apr   2020  Devonshire         553
##  4 Apr   2020  Foothill           638
##  5 Apr   2020  Harbor             710
##  6 Apr   2020  Hollenbeck         605
##  7 Apr   2020  Hollywood          783
##  8 Apr   2020  Mission            636
##  9 Apr   2020  N Hollywood        806
## 10 Apr   2020  Newton             784
## # … with 494 more rows
…
